0:0:0:0:0:0:0:1 - - [26/Feb/2020:14:01:47 +0530] "GET /BlockChain/ HTTP/1.1" 200 2174
0:0:0:0:0:0:0:1 - - [26/Feb/2020:14:02:24 +0530] "GET /BlockChain/Login.jsp HTTP/1.1" 200 2274
0:0:0:0:0:0:0:1 - - [26/Feb/2020:14:02:46 +0530] "POST /BlockChain/Login HTTP/1.1" 200 2341
0:0:0:0:0:0:0:1 - - [26/Feb/2020:14:03:17 +0530] "GET /BlockChain/Register.jsp HTTP/1.1" 200 3444
0:0:0:0:0:0:0:1 - - [26/Feb/2020:14:04:12 +0530] "POST /BlockChain/Register HTTP/1.1" 200 2346
0:0:0:0:0:0:0:1 - - [26/Feb/2020:14:04:16 +0530] "GET /BlockChain/Register.jsp HTTP/1.1" 200 3444
0:0:0:0:0:0:0:1 - - [26/Feb/2020:14:05:10 +0530] "POST /BlockChain/Register HTTP/1.1" 200 2346
0:0:0:0:0:0:0:1 - - [26/Feb/2020:14:05:36 +0530] "POST /BlockChain/Login HTTP/1.1" 200 2165
0:0:0:0:0:0:0:1 - - [26/Feb/2020:14:05:39 +0530] "GET /BlockChain/ViewPMedicalProfile.jsp HTTP/1.1" 500 2411
0:0:0:0:0:0:0:1 - - [26/Feb/2020:14:05:44 +0530] "GET /BlockChain/Logout.jsp HTTP/1.1" 200 2174
0:0:0:0:0:0:0:1 - - [26/Feb/2020:14:05:51 +0530] "GET /BlockChain/Login.jsp HTTP/1.1" 200 2274
0:0:0:0:0:0:0:1 - - [26/Feb/2020:14:06:10 +0530] "POST /BlockChain/Login HTTP/1.1" 200 2257
0:0:0:0:0:0:0:1 - - [26/Feb/2020:14:06:15 +0530] "GET /BlockChain/CreateProfile.jsp HTTP/1.1" 200 2258
0:0:0:0:0:0:0:1 - - [26/Feb/2020:14:06:49 +0530] "POST /BlockChain/CreateProfile HTTP/1.1" 200 2269
0:0:0:0:0:0:0:1 - - [26/Feb/2020:14:06:54 +0530] "GET /BlockChain/ViewProfile.jsp HTTP/1.1" 200 1515
0:0:0:0:0:0:0:1 - - [26/Feb/2020:14:06:57 +0530] "GET /BlockChain/ViewReports.jsp HTTP/1.1" 200 8955
0:0:0:0:0:0:0:1 - - [26/Feb/2020:14:07:00 +0530] "GET /BlockChain/Logout.jsp HTTP/1.1" 200 2174
0:0:0:0:0:0:0:1 - - [26/Feb/2020:14:07:02 +0530] "GET /BlockChain/Login.jsp HTTP/1.1" 200 2274
0:0:0:0:0:0:0:1 - - [26/Feb/2020:14:07:15 +0530] "POST /BlockChain/Login HTTP/1.1" 200 2165
0:0:0:0:0:0:0:1 - - [26/Feb/2020:14:07:17 +0530] "GET /BlockChain/ViewPMedicalProfile.jsp HTTP/1.1" 200 1486
0:0:0:0:0:0:0:1 - - [26/Feb/2020:14:07:19 +0530] "GET /BlockChain/AddPrescription.jsp?t11=patient1 HTTP/1.1" 200 2041
0:0:0:0:0:0:0:1 - - [26/Feb/2020:14:08:52 +0530] "POST /BlockChain/AddPrescription HTTP/1.1" 200 1508
0:0:0:0:0:0:0:1 - - [26/Feb/2020:14:08:57 +0530] "GET /BlockChain/Logout.jsp HTTP/1.1" 200 2174
0:0:0:0:0:0:0:1 - - [26/Feb/2020:14:09:00 +0530] "GET /BlockChain/Login.jsp HTTP/1.1" 200 2274
0:0:0:0:0:0:0:1 - - [26/Feb/2020:14:09:09 +0530] "POST /BlockChain/Login HTTP/1.1" 200 2341
0:0:0:0:0:0:0:1 - - [26/Feb/2020:14:09:24 +0530] "POST /BlockChain/Login HTTP/1.1" 200 2132
0:0:0:0:0:0:0:1 - - [26/Feb/2020:14:21:13 +0530] "GET /BlockChain/Logout.jsp HTTP/1.1" 200 2174
0:0:0:0:0:0:0:1 - - [26/Feb/2020:14:21:38 +0530] "GET /BlockChain/ HTTP/1.1" 200 2174
0:0:0:0:0:0:0:1 - - [26/Feb/2020:14:54:24 +0530] "GET /BlockChain/ HTTP/1.1" 200 2174
0:0:0:0:0:0:0:1 - - [26/Feb/2020:14:54:30 +0530] "GET /BlockChain/Register.jsp HTTP/1.1" 200 3444
0:0:0:0:0:0:0:1 - - [26/Feb/2020:14:54:57 +0530] "POST /BlockChain/Register HTTP/1.1" 200 2346
0:0:0:0:0:0:0:1 - - [26/Feb/2020:14:55:00 +0530] "GET /BlockChain/Register.jsp HTTP/1.1" 200 3444
0:0:0:0:0:0:0:1 - - [26/Feb/2020:14:55:56 +0530] "POST /BlockChain/Register HTTP/1.1" 200 2346
0:0:0:0:0:0:0:1 - - [26/Feb/2020:14:55:59 +0530] "GET /BlockChain/Register.jsp HTTP/1.1" 200 3444
0:0:0:0:0:0:0:1 - - [26/Feb/2020:14:57:00 +0530] "POST /BlockChain/Register HTTP/1.1" 200 2346
0:0:0:0:0:0:0:1 - - [26/Feb/2020:14:57:13 +0530] "GET /BlockChain/Register.jsp HTTP/1.1" 200 3444
0:0:0:0:0:0:0:1 - - [26/Feb/2020:14:58:08 +0530] "POST /BlockChain/Register HTTP/1.1" 200 2346
0:0:0:0:0:0:0:1 - - [26/Feb/2020:14:58:18 +0530] "GET /BlockChain/Login.jsp HTTP/1.1" 200 2274
0:0:0:0:0:0:0:1 - - [26/Feb/2020:14:58:33 +0530] "POST /BlockChain/Login HTTP/1.1" 200 2257
0:0:0:0:0:0:0:1 - - [26/Feb/2020:14:58:36 +0530] "GET /BlockChain/CreateProfile.jsp HTTP/1.1" 200 2318
0:0:0:0:0:0:0:1 - - [26/Feb/2020:14:59:09 +0530] "POST /BlockChain/CreateProfile HTTP/1.1" 200 2269
0:0:0:0:0:0:0:1 - - [26/Feb/2020:14:59:31 +0530] "GET /BlockChain/ViewProfile.jsp HTTP/1.1" 200 1515
0:0:0:0:0:0:0:1 - - [26/Feb/2020:14:59:35 +0530] "GET /BlockChain/Logout.jsp HTTP/1.1" 200 2174
0:0:0:0:0:0:0:1 - - [26/Feb/2020:14:59:37 +0530] "GET /BlockChain/Login.jsp HTTP/1.1" 200 2274
0:0:0:0:0:0:0:1 - - [26/Feb/2020:14:59:50 +0530] "POST /BlockChain/Login HTTP/1.1" 200 2341
0:0:0:0:0:0:0:1 - - [26/Feb/2020:15:00:08 +0530] "POST /BlockChain/Login HTTP/1.1" 200 2257
0:0:0:0:0:0:0:1 - - [26/Feb/2020:15:00:10 +0530] "GET /BlockChain/CreateProfile.jsp HTTP/1.1" 200 2318
0:0:0:0:0:0:0:1 - - [26/Feb/2020:15:00:40 +0530] "POST /BlockChain/CreateProfile HTTP/1.1" 200 2269
0:0:0:0:0:0:0:1 - - [26/Feb/2020:15:00:47 +0530] "GET /BlockChain/Logout.jsp HTTP/1.1" 200 2174
0:0:0:0:0:0:0:1 - - [26/Feb/2020:15:00:50 +0530] "GET /BlockChain/Login.jsp HTTP/1.1" 200 2274
0:0:0:0:0:0:0:1 - - [26/Feb/2020:15:01:04 +0530] "POST /BlockChain/Login HTTP/1.1" 200 2165
0:0:0:0:0:0:0:1 - - [26/Feb/2020:15:01:06 +0530] "GET /BlockChain/ViewPMedicalProfile.jsp HTTP/1.1" 200 1482
0:0:0:0:0:0:0:1 - - [26/Feb/2020:15:01:09 +0530] "GET /BlockChain/AddPrescription.jsp?t11=patient2 HTTP/1.1" 200 2041
0:0:0:0:0:0:0:1 - - [26/Feb/2020:15:02:11 +0530] "POST /BlockChain/AddPrescription HTTP/1.1" 200 1500
0:0:0:0:0:0:0:1 - - [26/Feb/2020:15:02:26 +0530] "GET /BlockChain/Logout.jsp HTTP/1.1" 200 2174
0:0:0:0:0:0:0:1 - - [26/Feb/2020:15:02:31 +0530] "GET /BlockChain/Login.jsp HTTP/1.1" 200 2274
0:0:0:0:0:0:0:1 - - [26/Feb/2020:15:02:50 +0530] "POST /BlockChain/Login HTTP/1.1" 200 2257
0:0:0:0:0:0:0:1 - - [26/Feb/2020:15:02:54 +0530] "GET /BlockChain/ViewProfile.jsp HTTP/1.1" 200 1512
0:0:0:0:0:0:0:1 - - [26/Feb/2020:15:03:05 +0530] "GET /BlockChain/CreateProfile.jsp HTTP/1.1" 200 2318
0:0:0:0:0:0:0:1 - - [26/Feb/2020:15:03:46 +0530] "POST /BlockChain/CreateProfile HTTP/1.1" 200 2269
0:0:0:0:0:0:0:1 - - [26/Feb/2020:15:03:50 +0530] "GET /BlockChain/ViewReports.jsp HTTP/1.1" 200 8955
0:0:0:0:0:0:0:1 - - [26/Feb/2020:15:03:52 +0530] "GET /BlockChain/ViewProfile.jsp HTTP/1.1" 200 1720
0:0:0:0:0:0:0:1 - - [26/Feb/2020:15:04:08 +0530] "GET /BlockChain/ HTTP/1.1" 200 2174
0:0:0:0:0:0:0:1 - - [26/Feb/2020:15:04:13 +0530] "GET /BlockChain/Login.jsp HTTP/1.1" 200 2274
0:0:0:0:0:0:0:1 - - [26/Feb/2020:15:04:31 +0530] "POST /BlockChain/Login HTTP/1.1" 200 2165
0:0:0:0:0:0:0:1 - - [26/Feb/2020:15:04:33 +0530] "GET /BlockChain/ViewPMedicalProfile.jsp HTTP/1.1" 200 1694
0:0:0:0:0:0:0:1 - - [26/Feb/2020:15:06:23 +0530] "GET /BlockChain/ HTTP/1.1" 200 2174
0:0:0:0:0:0:0:1 - - [26/Feb/2020:15:06:27 +0530] "GET /BlockChain/Register.jsp HTTP/1.1" 200 3444
0:0:0:0:0:0:0:1 - - [26/Feb/2020:15:06:34 +0530] "GET /BlockChain/Login.jsp HTTP/1.1" 200 2274
0:0:0:0:0:0:0:1 - - [26/Feb/2020:15:07:00 +0530] "POST /BlockChain/Login HTTP/1.1" 200 2165
0:0:0:0:0:0:0:1 - - [26/Feb/2020:15:07:04 +0530] "GET /BlockChain/ViewPMedicalProfile.jsp HTTP/1.1" 200 1694
0:0:0:0:0:0:0:1 - - [26/Feb/2020:15:09:12 +0530] "GET /BlockChain/ HTTP/1.1" 200 2174
0:0:0:0:0:0:0:1 - - [26/Feb/2020:15:09:21 +0530] "GET /BlockChain/Register.jsp HTTP/1.1" 200 3444
0:0:0:0:0:0:0:1 - - [26/Feb/2020:15:09:25 +0530] "GET /BlockChain/Login.jsp HTTP/1.1" 200 2274
0:0:0:0:0:0:0:1 - - [26/Feb/2020:15:09:53 +0530] "POST /BlockChain/Login HTTP/1.1" 200 2341
0:0:0:0:0:0:0:1 - - [26/Feb/2020:15:09:57 +0530] "GET /BlockChain/Register.jsp HTTP/1.1" 200 3444
0:0:0:0:0:0:0:1 - - [26/Feb/2020:15:10:24 +0530] "POST /BlockChain/Register HTTP/1.1" 200 2346
0:0:0:0:0:0:0:1 - - [26/Feb/2020:15:10:29 +0530] "GET /BlockChain/Register.jsp HTTP/1.1" 200 3444
0:0:0:0:0:0:0:1 - - [26/Feb/2020:15:11:53 +0530] "POST /BlockChain/Register HTTP/1.1" 200 2346
0:0:0:0:0:0:0:1 - - [26/Feb/2020:15:12:19 +0530] "POST /BlockChain/Login HTTP/1.1" 200 2257
0:0:0:0:0:0:0:1 - - [26/Feb/2020:15:12:21 +0530] "GET /BlockChain/CreateProfile.jsp HTTP/1.1" 200 2258
0:0:0:0:0:0:0:1 - - [26/Feb/2020:15:12:35 +0530] "POST /BlockChain/CreateProfile HTTP/1.1" 200 2269
0:0:0:0:0:0:0:1 - - [26/Feb/2020:15:12:39 +0530] "GET /BlockChain/ViewProfile.jsp HTTP/1.1" 200 1515
0:0:0:0:0:0:0:1 - - [26/Feb/2020:15:12:40 +0530] "GET /BlockChain/Logout.jsp HTTP/1.1" 200 2174
0:0:0:0:0:0:0:1 - - [26/Feb/2020:15:12:42 +0530] "GET /BlockChain/Login.jsp HTTP/1.1" 200 2274
0:0:0:0:0:0:0:1 - - [26/Feb/2020:15:12:54 +0530] "POST /BlockChain/Login HTTP/1.1" 200 2165
0:0:0:0:0:0:0:1 - - [26/Feb/2020:15:12:56 +0530] "GET /BlockChain/ViewPMedicalProfile.jsp HTTP/1.1" 200 1486
0:0:0:0:0:0:0:1 - - [26/Feb/2020:15:12:58 +0530] "GET /BlockChain/AddPrescription.jsp?t11=patient1 HTTP/1.1" 200 2041
0:0:0:0:0:0:0:1 - - [26/Feb/2020:15:13:20 +0530] "POST /BlockChain/AddPrescription HTTP/1.1" 200 1566
0:0:0:0:0:0:0:1 - - [26/Feb/2020:15:13:23 +0530] "GET /BlockChain/ViewPMedicalProfile.jsp HTTP/1.1" 200 1428
0:0:0:0:0:0:0:1 - - [26/Feb/2020:15:13:34 +0530] "GET /BlockChain/Logout.jsp HTTP/1.1" 200 2174
0:0:0:0:0:0:0:1 - - [26/Feb/2020:15:13:39 +0530] "GET /BlockChain/Login.jsp HTTP/1.1" 200 2274
0:0:0:0:0:0:0:1 - - [26/Feb/2020:15:13:53 +0530] "POST /BlockChain/Login HTTP/1.1" 200 2257
0:0:0:0:0:0:0:1 - - [26/Feb/2020:15:13:55 +0530] "GET /BlockChain/CreateProfile.jsp HTTP/1.1" 200 2258
0:0:0:0:0:0:0:1 - - [26/Feb/2020:15:13:57 +0530] "GET /BlockChain/ViewProfile.jsp HTTP/1.1" 200 1520
0:0:0:0:0:0:0:1 - - [26/Feb/2020:15:14:10 +0530] "GET /BlockChain/CreateProfile.jsp HTTP/1.1" 200 2258
0:0:0:0:0:0:0:1 - - [26/Feb/2020:15:14:12 +0530] "GET /BlockChain/ViewProfile.jsp HTTP/1.1" 200 1520
0:0:0:0:0:0:0:1 - - [26/Feb/2020:15:14:16 +0530] "GET /BlockChain/ViewReports.jsp HTTP/1.1" 200 8955
0:0:0:0:0:0:0:1 - - [26/Feb/2020:15:14:22 +0530] "GET /BlockChain/Logout.jsp HTTP/1.1" 200 2174
0:0:0:0:0:0:0:1 - - [26/Feb/2020:15:14:25 +0530] "GET /BlockChain/Register.jsp HTTP/1.1" 200 3444
0:0:0:0:0:0:0:1 - - [26/Feb/2020:15:14:27 +0530] "GET /BlockChain/Login.jsp HTTP/1.1" 200 2274
0:0:0:0:0:0:0:1 - - [26/Feb/2020:15:14:36 +0530] "POST /BlockChain/Login HTTP/1.1" 200 2132
0:0:0:0:0:0:0:1 - - [26/Feb/2020:15:14:38 +0530] "GET /BlockChain/AddReport.jsp HTTP/1.1" 200 1908
0:0:0:0:0:0:0:1 - - [26/Feb/2020:15:15:22 +0530] "POST /BlockChain/AddReport HTTP/1.1" 200 1983
0:0:0:0:0:0:0:1 - - [26/Feb/2020:15:15:26 +0530] "GET /BlockChain/Logout.jsp HTTP/1.1" 200 2174
0:0:0:0:0:0:0:1 - - [26/Feb/2020:15:15:28 +0530] "GET /BlockChain/Login.jsp HTTP/1.1" 200 2274
0:0:0:0:0:0:0:1 - - [26/Feb/2020:15:15:39 +0530] "POST /BlockChain/Login HTTP/1.1" 200 2257
0:0:0:0:0:0:0:1 - - [26/Feb/2020:15:15:42 +0530] "GET /BlockChain/ViewReports.jsp HTTP/1.1" 200 8955
0:0:0:0:0:0:0:1 - - [26/Feb/2020:15:15:51 +0530] "POST /BlockChain/ViewReport.jsp HTTP/1.1" 200 1749
0:0:0:0:0:0:0:1 - - [26/Feb/2020:15:15:57 +0530] "GET /BlockChain/DownloadReport.jsp?t1=ctscan.jpeg HTTP/1.1" 200 63491
0:0:0:0:0:0:0:1 - - [26/Feb/2020:15:16:12 +0530] "GET /BlockChain/ViewProfile.jsp HTTP/1.1" 200 1520
0:0:0:0:0:0:0:1 - - [26/Feb/2020:15:16:14 +0530] "GET /BlockChain/Logout.jsp HTTP/1.1" 200 2174
0:0:0:0:0:0:0:1 - - [26/Feb/2020:15:16:16 +0530] "GET /BlockChain/Login.jsp HTTP/1.1" 200 2274
0:0:0:0:0:0:0:1 - - [26/Feb/2020:15:16:20 +0530] "GET /BlockChain/Login.jsp HTTP/1.1" 200 2274
0:0:0:0:0:0:0:1 - - [26/Feb/2020:15:16:30 +0530] "POST /BlockChain/Login HTTP/1.1" 200 2165
0:0:0:0:0:0:0:1 - - [26/Feb/2020:15:16:34 +0530] "GET /BlockChain/ViewPMedicalProfile.jsp HTTP/1.1" 200 1428
0:0:0:0:0:0:0:1 - - [26/Feb/2020:15:16:47 +0530] "GET /BlockChain/Logout.jsp HTTP/1.1" 200 2174
0:0:0:0:0:0:0:1 - - [26/Feb/2020:15:16:48 +0530] "GET /BlockChain/Register.jsp HTTP/1.1" 200 3444
0:0:0:0:0:0:0:1 - - [26/Feb/2020:15:17:33 +0530] "POST /BlockChain/Register HTTP/1.1" 200 2346
0:0:0:0:0:0:0:1 - - [26/Feb/2020:15:17:51 +0530] "POST /BlockChain/Login HTTP/1.1" 200 2257
0:0:0:0:0:0:0:1 - - [26/Feb/2020:15:17:53 +0530] "GET /BlockChain/CreateProfile.jsp HTTP/1.1" 200 2258
0:0:0:0:0:0:0:1 - - [26/Feb/2020:15:18:26 +0530] "POST /BlockChain/CreateProfile HTTP/1.1" 200 2269
0:0:0:0:0:0:0:1 - - [26/Feb/2020:15:18:28 +0530] "GET /BlockChain/ViewProfile.jsp HTTP/1.1" 200 1511
0:0:0:0:0:0:0:1 - - [26/Feb/2020:15:18:32 +0530] "GET /BlockChain/Logout.jsp HTTP/1.1" 200 2174
0:0:0:0:0:0:0:1 - - [26/Feb/2020:15:18:35 +0530] "GET /BlockChain/Login.jsp HTTP/1.1" 200 2274
0:0:0:0:0:0:0:1 - - [26/Feb/2020:15:18:36 +0530] "GET /BlockChain/Login.jsp HTTP/1.1" 200 2274
0:0:0:0:0:0:0:1 - - [26/Feb/2020:15:18:45 +0530] "POST /BlockChain/Login HTTP/1.1" 200 2165
0:0:0:0:0:0:0:1 - - [26/Feb/2020:15:18:48 +0530] "GET /BlockChain/ViewPMedicalProfile.jsp HTTP/1.1" 200 1696
0:0:0:0:0:0:0:1 - - [26/Feb/2020:15:18:52 +0530] "GET /BlockChain/AddPrescription.jsp?t11=patient2 HTTP/1.1" 200 2041
0:0:0:0:0:0:0:1 - - [26/Feb/2020:15:19:28 +0530] "POST /BlockChain/AddPrescription HTTP/1.1" 200 1718
0:0:0:0:0:0:0:1 - - [26/Feb/2020:15:19:33 +0530] "GET /BlockChain/Logout.jsp HTTP/1.1" 200 2174
0:0:0:0:0:0:0:1 - - [26/Feb/2020:15:34:58 +0530] "GET /BlockChain/Login.jsp HTTP/1.1" 200 2274
0:0:0:0:0:0:0:1 - - [26/Feb/2020:15:36:39 +0530] "POST /BlockChain/Login HTTP/1.1" 200 2165
0:0:0:0:0:0:0:1 - - [26/Feb/2020:15:36:41 +0530] "GET /BlockChain/ViewPMedicalProfile.jsp HTTP/1.1" 200 1638
0:0:0:0:0:0:0:1 - - [26/Feb/2020:15:40:53 +0530] "GET /BlockChain/Logout.jsp HTTP/1.1" 200 2174
0:0:0:0:0:0:0:1 - - [26/Feb/2020:15:41:19 +0530] "GET /BlockChain/Register.jsp HTTP/1.1" 200 3444
0:0:0:0:0:0:0:1 - - [26/Feb/2020:15:45:56 +0530] "POST /BlockChain/Register HTTP/1.1" 200 2346
0:0:0:0:0:0:0:1 - - [26/Feb/2020:15:46:12 +0530] "POST /BlockChain/Login HTTP/1.1" 200 2257
0:0:0:0:0:0:0:1 - - [26/Feb/2020:15:46:17 +0530] "GET /BlockChain/CreateProfile.jsp HTTP/1.1" 200 2258
0:0:0:0:0:0:0:1 - - [26/Feb/2020:15:47:00 +0530] "POST /BlockChain/CreateProfile HTTP/1.1" 200 2269
0:0:0:0:0:0:0:1 - - [26/Feb/2020:15:47:04 +0530] "GET /BlockChain/ViewProfile.jsp HTTP/1.1" 200 1510
0:0:0:0:0:0:0:1 - - [26/Feb/2020:15:47:10 +0530] "GET /BlockChain/ViewReports.jsp HTTP/1.1" 200 8955
0:0:0:0:0:0:0:1 - - [26/Feb/2020:15:47:14 +0530] "GET /BlockChain/ViewProfile.jsp HTTP/1.1" 200 1510
