0:0:0:0:0:0:0:1 - - [07/Mar/2020:12:22:00 +0530] "GET /BlockChain HTTP/1.1" 302 -
0:0:0:0:0:0:0:1 - - [07/Mar/2020:12:22:01 +0530] "GET /BlockChain/ HTTP/1.1" 200 2174
0:0:0:0:0:0:0:1 - - [07/Mar/2020:12:22:01 +0530] "GET /BlockChain/images/header_images.jpg HTTP/1.1" 304 -
0:0:0:0:0:0:0:1 - - [07/Mar/2020:13:09:40 +0530] "GET /BlockChain/Register.jsp HTTP/1.1" 200 3444
0:0:0:0:0:0:0:1 - - [07/Mar/2020:14:18:16 +0530] "GET /BlockChain/Register.jsp HTTP/1.1" 200 3444
0:0:0:0:0:0:0:1 - - [07/Mar/2020:14:18:16 +0530] "GET /favicon.ico HTTP/1.1" 200 21630
0:0:0:0:0:0:0:1 - - [07/Mar/2020:14:18:17 +0530] "GET /BlockChain/Register.jsp HTTP/1.1" 200 3444
0:0:0:0:0:0:0:1 - - [07/Mar/2020:14:18:17 +0530] "GET /favicon.ico HTTP/1.1" 200 21630
0:0:0:0:0:0:0:1 - - [07/Mar/2020:14:56:25 +0530] "POST /BlockChain/Register HTTP/1.1" 200 2346
0:0:0:0:0:0:0:1 - - [07/Mar/2020:14:56:29 +0530] "GET /BlockChain/Register.jsp HTTP/1.1" 200 3444
0:0:0:0:0:0:0:1 - - [07/Mar/2020:14:57:12 +0530] "POST /BlockChain/Register HTTP/1.1" 200 2346
0:0:0:0:0:0:0:1 - - [07/Mar/2020:14:57:17 +0530] "GET /BlockChain/Login.jsp HTTP/1.1" 200 2274
0:0:0:0:0:0:0:1 - - [07/Mar/2020:14:57:28 +0530] "POST /BlockChain/Login HTTP/1.1" 200 2257
0:0:0:0:0:0:0:1 - - [07/Mar/2020:14:57:35 +0530] "GET /BlockChain/CreateProfile.jsp HTTP/1.1" 200 2258
0:0:0:0:0:0:0:1 - - [07/Mar/2020:14:58:36 +0530] "POST /BlockChain/CreateProfile HTTP/1.1" 200 2269
0:0:0:0:0:0:0:1 - - [07/Mar/2020:14:58:41 +0530] "GET /BlockChain/ViewProfile.jsp HTTP/1.1" 500 2395
0:0:0:0:0:0:0:1 - - [07/Mar/2020:14:58:54 +0530] "GET /BlockChain/Logout.jsp HTTP/1.1" 200 2174
0:0:0:0:0:0:0:1 - - [07/Mar/2020:14:58:57 +0530] "GET /BlockChain/Login.jsp HTTP/1.1" 200 2274
0:0:0:0:0:0:0:1 - - [07/Mar/2020:14:59:08 +0530] "POST /BlockChain/Login HTTP/1.1" 200 2165
0:0:0:0:0:0:0:1 - - [07/Mar/2020:14:59:12 +0530] "GET /BlockChain/ViewPMedicalProfile.jsp HTTP/1.1" 200 1477
0:0:0:0:0:0:0:1 - - [07/Mar/2020:14:59:18 +0530] "GET /BlockChain/AddPrescription.jsp?t11=patient1 HTTP/1.1" 200 2041
0:0:0:0:0:0:0:1 - - [07/Mar/2020:14:59:59 +0530] "POST /BlockChain/AddPrescription HTTP/1.1" 200 1491
0:0:0:0:0:0:0:1 - - [07/Mar/2020:15:00:06 +0530] "GET /BlockChain/Logout.jsp HTTP/1.1" 200 2174
0:0:0:0:0:0:0:1 - - [07/Mar/2020:15:00:09 +0530] "GET /BlockChain/Login.jsp HTTP/1.1" 200 2274
0:0:0:0:0:0:0:1 - - [07/Mar/2020:15:00:21 +0530] "POST /BlockChain/Login HTTP/1.1" 200 2341
0:0:0:0:0:0:0:1 - - [07/Mar/2020:15:00:32 +0530] "POST /BlockChain/Login HTTP/1.1" 200 2132
0:0:0:0:0:0:0:1 - - [07/Mar/2020:15:00:34 +0530] "GET /BlockChain/AddReport.jsp HTTP/1.1" 200 1908
0:0:0:0:0:0:0:1 - - [07/Mar/2020:15:02:10 +0530] "POST /BlockChain/AddReport HTTP/1.1" 200 1983
0:0:0:0:0:0:0:1 - - [07/Mar/2020:15:02:12 +0530] "GET /BlockChain/Logout.jsp HTTP/1.1" 200 2174
0:0:0:0:0:0:0:1 - - [07/Mar/2020:15:02:16 +0530] "GET /BlockChain/Login.jsp HTTP/1.1" 200 2274
0:0:0:0:0:0:0:1 - - [07/Mar/2020:15:02:27 +0530] "POST /BlockChain/Login HTTP/1.1" 200 2257
0:0:0:0:0:0:0:1 - - [07/Mar/2020:15:02:30 +0530] "GET /BlockChain/ViewReports.jsp HTTP/1.1" 200 8955
0:0:0:0:0:0:0:1 - - [07/Mar/2020:15:02:41 +0530] "POST /BlockChain/ViewReport.jsp HTTP/1.1" 200 1749
0:0:0:0:0:0:0:1 - - [07/Mar/2020:15:21:14 +0530] "GET /BlockChain/Logout.jsp HTTP/1.1" 200 2174
0:0:0:0:0:0:0:1 - - [07/Mar/2020:15:21:25 +0530] "GET /BlockChain/Login.jsp HTTP/1.1" 200 2274
0:0:0:0:0:0:0:1 - - [07/Mar/2020:15:21:37 +0530] "POST /BlockChain/Login HTTP/1.1" 200 2165
0:0:0:0:0:0:0:1 - - [07/Mar/2020:15:21:39 +0530] "GET /BlockChain/ViewPMedicalProfile.jsp HTTP/1.1" 200 1411
0:0:0:0:0:0:0:1 - - [07/Mar/2020:16:09:27 +0530] "GET /BlockChain/Logout.jsp HTTP/1.1" 200 2174
0:0:0:0:0:0:0:1 - - [07/Mar/2020:16:45:40 +0530] "GET /BlockChain/Register.jsp HTTP/1.1" 200 3444
0:0:0:0:0:0:0:1 - - [07/Mar/2020:16:46:39 +0530] "GET /BlockChain/Login.jsp HTTP/1.1" 200 2274
0:0:0:0:0:0:0:1 - - [07/Mar/2020:16:46:50 +0530] "POST /BlockChain/Login HTTP/1.1" 200 2257
0:0:0:0:0:0:0:1 - - [07/Mar/2020:16:46:53 +0530] "GET /BlockChain/CreateProfile.jsp HTTP/1.1" 200 2258
0:0:0:0:0:0:0:1 - - [07/Mar/2020:18:28:58 +0530] "GET /BlockChain/Logout.jsp HTTP/1.1" 200 2174
0:0:0:0:0:0:0:1 - - [07/Mar/2020:18:29:35 +0530] "GET /BlockChain/Register.jsp HTTP/1.1" 200 3444
0:0:0:0:0:0:0:1 - - [07/Mar/2020:18:29:38 +0530] "GET /BlockChain/Login.jsp HTTP/1.1" 200 2274
0:0:0:0:0:0:0:1 - - [07/Mar/2020:18:29:43 +0530] "GET /BlockChain/Login.jsp HTTP/1.1" 200 2274
0:0:0:0:0:0:0:1 - - [07/Mar/2020:18:29:44 +0530] "GET /BlockChain/Login.jsp HTTP/1.1" 200 2274
0:0:0:0:0:0:0:1 - - [07/Mar/2020:18:30:16 +0530] "POST /BlockChain/Login HTTP/1.1" 200 2165
0:0:0:0:0:0:0:1 - - [07/Mar/2020:18:30:20 +0530] "GET /BlockChain/ViewPMedicalProfile.jsp HTTP/1.1" 200 1411
0:0:0:0:0:0:0:1 - - [07/Mar/2020:18:30:43 +0530] "GET /BlockChain/Logout.jsp HTTP/1.1" 200 2174
0:0:0:0:0:0:0:1 - - [07/Mar/2020:18:31:48 +0530] "GET /BlockChain/Login.jsp HTTP/1.1" 200 2274
0:0:0:0:0:0:0:1 - - [07/Mar/2020:18:31:51 +0530] "GET /BlockChain/Login.jsp HTTP/1.1" 200 2274
0:0:0:0:0:0:0:1 - - [07/Mar/2020:18:31:53 +0530] "GET /BlockChain/Login.jsp HTTP/1.1" 200 2274
0:0:0:0:0:0:0:1 - - [07/Mar/2020:18:31:54 +0530] "GET /BlockChain/Login.jsp HTTP/1.1" 200 2274
0:0:0:0:0:0:0:1 - - [07/Mar/2020:18:31:58 +0530] "GET /BlockChain/Login.jsp HTTP/1.1" 200 2274
0:0:0:0:0:0:0:1 - - [07/Mar/2020:18:31:59 +0530] "GET /BlockChain/Login.jsp HTTP/1.1" 200 2274
0:0:0:0:0:0:0:1 - - [07/Mar/2020:18:32:16 +0530] "GET /BlockChain/Login.jsp HTTP/1.1" 200 2274
0:0:0:0:0:0:0:1 - - [07/Mar/2020:18:45:22 +0530] "GET /BlockChain/Register.jsp HTTP/1.1" 200 3444
0:0:0:0:0:0:0:1 - - [07/Mar/2020:18:45:23 +0530] "GET /BlockChain/Register.jsp HTTP/1.1" 200 3444
0:0:0:0:0:0:0:1 - - [07/Mar/2020:18:56:04 +0530] "GET /BlockChain/Login.jsp HTTP/1.1" 200 2274
