0:0:0:0:0:0:0:1 - - [25/Mar/2020:20:11:40 +0530] "GET /BlockChain HTTP/1.1" 302 -
0:0:0:0:0:0:0:1 - - [25/Mar/2020:20:11:40 +0530] "GET /BlockChain/ HTTP/1.1" 200 2174
0:0:0:0:0:0:0:1 - - [25/Mar/2020:20:11:40 +0530] "GET /BlockChain/style.css HTTP/1.1" 200 6294
0:0:0:0:0:0:0:1 - - [25/Mar/2020:20:11:40 +0530] "GET /BlockChain/images/header_images.jpg HTTP/1.1" 200 10046
0:0:0:0:0:0:0:1 - - [25/Mar/2020:20:11:40 +0530] "GET /BlockChain/images/main_bottom_bg.gif HTTP/1.1" 200 64
0:0:0:0:0:0:0:1 - - [25/Mar/2020:20:11:40 +0530] "GET /BlockChain/images/main_top_bg.gif HTTP/1.1" 200 73
0:0:0:0:0:0:0:1 - - [25/Mar/2020:20:11:40 +0530] "GET /BlockChain/images/content_border_bg.png HTTP/1.1" 200 2802
0:0:0:0:0:0:0:1 - - [25/Mar/2020:20:11:40 +0530] "GET /BlockChain/images/menu_line.gif HTTP/1.1" 200 178
0:0:0:0:0:0:0:1 - - [25/Mar/2020:20:11:40 +0530] "GET /BlockChain/images/menu_bg.gif HTTP/1.1" 200 55
0:0:0:0:0:0:0:1 - - [25/Mar/2020:20:11:41 +0530] "GET /favicon.ico HTTP/1.1" 200 21630
0:0:0:0:0:0:0:1 - - [25/Mar/2020:20:16:09 +0530] "GET /BlockChain/Login.jsp HTTP/1.1" 200 2274
0:0:0:0:0:0:0:1 - - [25/Mar/2020:20:16:25 +0530] "POST /BlockChain/Login HTTP/1.1" 200 2341
0:0:0:0:0:0:0:1 - - [25/Mar/2020:20:16:47 +0530] "GET /BlockChain/Register.jsp HTTP/1.1" 200 3444
0:0:0:0:0:0:0:1 - - [25/Mar/2020:20:17:32 +0530] "POST /BlockChain/Register HTTP/1.1" 200 2346
0:0:0:0:0:0:0:1 - - [25/Mar/2020:20:17:37 +0530] "GET /BlockChain/Register.jsp HTTP/1.1" 200 3444
0:0:0:0:0:0:0:1 - - [25/Mar/2020:20:18:23 +0530] "POST /BlockChain/Register HTTP/1.1" 200 2346
0:0:0:0:0:0:0:1 - - [25/Mar/2020:20:18:26 +0530] "GET /BlockChain/Register.jsp HTTP/1.1" 200 3444
0:0:0:0:0:0:0:1 - - [25/Mar/2020:20:19:07 +0530] "POST /BlockChain/Register HTTP/1.1" 200 2346
0:0:0:0:0:0:0:1 - - [25/Mar/2020:20:19:09 +0530] "GET /BlockChain/Register.jsp HTTP/1.1" 200 3444
0:0:0:0:0:0:0:1 - - [25/Mar/2020:20:19:55 +0530] "POST /BlockChain/Register HTTP/1.1" 200 2346
0:0:0:0:0:0:0:1 - - [25/Mar/2020:20:20:04 +0530] "GET /BlockChain/Login.jsp HTTP/1.1" 200 2274
0:0:0:0:0:0:0:1 - - [25/Mar/2020:20:20:13 +0530] "POST /BlockChain/Login HTTP/1.1" 200 2257
0:0:0:0:0:0:0:1 - - [25/Mar/2020:20:20:17 +0530] "GET /BlockChain/CreateProfile.jsp HTTP/1.1" 200 2318
0:0:0:0:0:0:0:1 - - [25/Mar/2020:20:20:18 +0530] "GET /BlockChain/datetimepicker.js HTTP/1.1" 200 14268
0:0:0:0:0:0:0:1 - - [25/Mar/2020:20:20:48 +0530] "POST /BlockChain/CreateProfile HTTP/1.1" 200 2269
0:0:0:0:0:0:0:1 - - [25/Mar/2020:20:20:53 +0530] "GET /BlockChain/ViewProfile.jsp HTTP/1.1" 200 1510
0:0:0:0:0:0:0:1 - - [25/Mar/2020:20:20:59 +0530] "GET /BlockChain/Logout.jsp HTTP/1.1" 200 2174
0:0:0:0:0:0:0:1 - - [25/Mar/2020:20:21:04 +0530] "GET /BlockChain/Login.jsp HTTP/1.1" 200 2274
0:0:0:0:0:0:0:1 - - [25/Mar/2020:20:21:19 +0530] "POST /BlockChain/Login HTTP/1.1" 200 2165
0:0:0:0:0:0:0:1 - - [25/Mar/2020:20:21:22 +0530] "GET /BlockChain/ViewPMedicalProfile.jsp HTTP/1.1" 200 1481
0:0:0:0:0:0:0:1 - - [25/Mar/2020:20:21:24 +0530] "GET /BlockChain/AddPrescription.jsp?t11=patient1 HTTP/1.1" 200 2041
0:0:0:0:0:0:0:1 - - [25/Mar/2020:20:21:56 +0530] "POST /BlockChain/AddPrescription HTTP/1.1" 200 1499
0:0:0:0:0:0:0:1 - - [25/Mar/2020:20:22:01 +0530] "GET /BlockChain/Logout.jsp HTTP/1.1" 200 2174
0:0:0:0:0:0:0:1 - - [25/Mar/2020:20:22:05 +0530] "GET /BlockChain/Login.jsp HTTP/1.1" 200 2274
0:0:0:0:0:0:0:1 - - [25/Mar/2020:20:22:24 +0530] "POST /BlockChain/Login HTTP/1.1" 200 2257
0:0:0:0:0:0:0:1 - - [25/Mar/2020:20:22:26 +0530] "GET /BlockChain/CreateProfile.jsp HTTP/1.1" 200 2318
0:0:0:0:0:0:0:1 - - [25/Mar/2020:20:22:58 +0530] "POST /BlockChain/CreateProfile HTTP/1.1" 200 2269
0:0:0:0:0:0:0:1 - - [25/Mar/2020:20:23:01 +0530] "GET /BlockChain/ViewProfile.jsp HTTP/1.1" 200 1514
0:0:0:0:0:0:0:1 - - [25/Mar/2020:20:23:03 +0530] "GET /BlockChain/Logout.jsp HTTP/1.1" 200 2174
0:0:0:0:0:0:0:1 - - [25/Mar/2020:20:23:05 +0530] "GET /BlockChain/Login.jsp HTTP/1.1" 200 2274
0:0:0:0:0:0:0:1 - - [25/Mar/2020:20:23:13 +0530] "POST /BlockChain/Login HTTP/1.1" 200 2165
0:0:0:0:0:0:0:1 - - [25/Mar/2020:20:23:15 +0530] "GET /BlockChain/ViewPMedicalProfile.jsp HTTP/1.1" 200 1690
0:0:0:0:0:0:0:1 - - [25/Mar/2020:20:23:17 +0530] "GET /BlockChain/AddPrescription.jsp?t11=patient2 HTTP/1.1" 200 2041
0:0:0:0:0:0:0:1 - - [25/Mar/2020:20:23:41 +0530] "POST /BlockChain/AddPrescription HTTP/1.1" 200 1708
0:0:0:0:0:0:0:1 - - [25/Mar/2020:20:23:48 +0530] "GET /BlockChain/Logout.jsp HTTP/1.1" 200 2174
0:0:0:0:0:0:0:1 - - [25/Mar/2020:20:23:50 +0530] "GET /BlockChain/Login.jsp HTTP/1.1" 200 2274
0:0:0:0:0:0:0:1 - - [25/Mar/2020:20:24:16 +0530] "POST /BlockChain/Login HTTP/1.1" 200 2341
0:0:0:0:0:0:0:1 - - [25/Mar/2020:20:24:31 +0530] "POST /BlockChain/Login HTTP/1.1" 200 2132
0:0:0:0:0:0:0:1 - - [25/Mar/2020:20:24:33 +0530] "GET /BlockChain/AddReport.jsp HTTP/1.1" 200 1970
0:0:0:0:0:0:0:1 - - [25/Mar/2020:20:25:10 +0530] "POST /BlockChain/AddReport HTTP/1.1" 200 2045
0:0:0:0:0:0:0:1 - - [25/Mar/2020:20:25:14 +0530] "GET /BlockChain/Logout.jsp HTTP/1.1" 200 2174
0:0:0:0:0:0:0:1 - - [25/Mar/2020:20:25:24 +0530] "GET /BlockChain/Login.jsp HTTP/1.1" 200 2274
0:0:0:0:0:0:0:1 - - [25/Mar/2020:20:25:35 +0530] "POST /BlockChain/Login HTTP/1.1" 200 2257
0:0:0:0:0:0:0:1 - - [25/Mar/2020:20:25:40 +0530] "GET /BlockChain/ViewReports.jsp HTTP/1.1" 200 8955
0:0:0:0:0:0:0:1 - - [25/Mar/2020:20:26:08 +0530] "POST /BlockChain/ViewReport.jsp HTTP/1.1" 200 1749
0:0:0:0:0:0:0:1 - - [25/Mar/2020:20:26:14 +0530] "GET /BlockChain/DownloadReport.jsp?t1=ctscan.jpeg HTTP/1.1" 200 63491
0:0:0:0:0:0:0:1 - - [25/Mar/2020:20:26:22 +0530] "GET /BlockChain/ViewProfile.jsp HTTP/1.1" 200 1515
0:0:0:0:0:0:0:1 - - [25/Mar/2020:20:26:24 +0530] "GET /BlockChain/Logout.jsp HTTP/1.1" 200 2174
0:0:0:0:0:0:0:1 - - [25/Mar/2020:20:26:30 +0530] "GET /BlockChain/Login.jsp HTTP/1.1" 200 2274
0:0:0:0:0:0:0:1 - - [25/Mar/2020:20:26:45 +0530] "POST /BlockChain/Login HTTP/1.1" 200 2165
0:0:0:0:0:0:0:1 - - [25/Mar/2020:20:26:47 +0530] "GET /BlockChain/ViewPMedicalProfile.jsp HTTP/1.1" 200 1628
0:0:0:0:0:0:0:1 - - [25/Mar/2020:20:56:54 +0530] "GET /BlockChain HTTP/1.1" 302 -
0:0:0:0:0:0:0:1 - - [25/Mar/2020:20:56:54 +0530] "GET /BlockChain/ HTTP/1.1" 200 2174
0:0:0:0:0:0:0:1 - - [25/Mar/2020:20:57:09 +0530] "GET /BlockChain/Login.jsp HTTP/1.1" 200 2274
0:0:0:0:0:0:0:1 - - [25/Mar/2020:20:57:12 +0530] "GET /BlockChain/Login.jsp HTTP/1.1" 200 2274
0:0:0:0:0:0:0:1 - - [25/Mar/2020:20:57:14 +0530] "GET /BlockChain/Register.jsp HTTP/1.1" 200 3444
0:0:0:0:0:0:0:1 - - [25/Mar/2020:20:57:38 +0530] "GET /BlockChain/Login.jsp HTTP/1.1" 200 2274
0:0:0:0:0:0:0:1 - - [25/Mar/2020:20:57:40 +0530] "GET /BlockChain/Login.jsp HTTP/1.1" 200 2274
0:0:0:0:0:0:0:1 - - [25/Mar/2020:20:57:42 +0530] "GET /BlockChain/Register.jsp HTTP/1.1" 200 3444
0:0:0:0:0:0:0:1 - - [25/Mar/2020:20:57:44 +0530] "GET /BlockChain/Register.jsp HTTP/1.1" 200 3444
0:0:0:0:0:0:0:1 - - [25/Mar/2020:20:57:44 +0530] "GET /favicon.ico HTTP/1.1" 200 21630
0:0:0:0:0:0:0:1 - - [25/Mar/2020:20:57:45 +0530] "GET /BlockChain/Register.jsp HTTP/1.1" 200 3444
0:0:0:0:0:0:0:1 - - [25/Mar/2020:20:57:45 +0530] "GET /favicon.ico HTTP/1.1" 200 21630
0:0:0:0:0:0:0:1 - - [25/Mar/2020:20:57:45 +0530] "GET /BlockChain/Register.jsp HTTP/1.1" 200 3444
0:0:0:0:0:0:0:1 - - [25/Mar/2020:20:57:45 +0530] "GET /favicon.ico HTTP/1.1" 200 21630
0:0:0:0:0:0:0:1 - - [25/Mar/2020:21:00:47 +0530] "GET /BlockChain HTTP/1.1" 302 -
0:0:0:0:0:0:0:1 - - [25/Mar/2020:21:00:47 +0530] "GET /BlockChain/ HTTP/1.1" 200 2174
0:0:0:0:0:0:0:1 - - [25/Mar/2020:21:11:04 +0530] "GET /BlockChain/ HTTP/1.1" 200 2174
0:0:0:0:0:0:0:1 - - [25/Mar/2020:21:11:04 +0530] "GET /favicon.ico HTTP/1.1" 200 21630
0:0:0:0:0:0:0:1 - - [25/Mar/2020:21:11:05 +0530] "GET /BlockChain/ HTTP/1.1" 200 2174
0:0:0:0:0:0:0:1 - - [25/Mar/2020:21:11:05 +0530] "GET /favicon.ico HTTP/1.1" 200 21630
0:0:0:0:0:0:0:1 - - [25/Mar/2020:21:11:06 +0530] "GET /BlockChain/ HTTP/1.1" 200 2174
0:0:0:0:0:0:0:1 - - [25/Mar/2020:21:11:06 +0530] "GET /favicon.ico HTTP/1.1" 200 21630
0:0:0:0:0:0:0:1 - - [25/Mar/2020:21:13:58 +0530] "GET /BlockChain HTTP/1.1" 302 -
0:0:0:0:0:0:0:1 - - [25/Mar/2020:21:13:58 +0530] "GET /BlockChain/ HTTP/1.1" 200 2174
0:0:0:0:0:0:0:1 - - [25/Mar/2020:21:14:03 +0530] "GET /BlockChain/ HTTP/1.1" 200 2174
0:0:0:0:0:0:0:1 - - [25/Mar/2020:21:14:03 +0530] "GET /favicon.ico HTTP/1.1" 200 21630
0:0:0:0:0:0:0:1 - - [25/Mar/2020:21:14:04 +0530] "GET /BlockChain/ HTTP/1.1" 200 2174
0:0:0:0:0:0:0:1 - - [25/Mar/2020:21:14:04 +0530] "GET /favicon.ico HTTP/1.1" 200 21630
0:0:0:0:0:0:0:1 - - [25/Mar/2020:21:39:30 +0530] "GET /BlockChain/ HTTP/1.1" 200 1082
0:0:0:0:0:0:0:1 - - [25/Mar/2020:21:39:38 +0530] "GET /BlockChain/Register.jsp HTTP/1.1" 200 3443
0:0:0:0:0:0:0:1 - - [25/Mar/2020:21:39:43 +0530] "GET /BlockChain/Login.jsp HTTP/1.1" 200 2272
0:0:0:0:0:0:0:1 - - [25/Mar/2020:21:39:50 +0530] "GET /BlockChain/Login.jsp HTTP/1.1" 200 2272
0:0:0:0:0:0:0:1 - - [25/Mar/2020:21:39:53 +0530] "GET /BlockChain/Login.jsp HTTP/1.1" 200 2272
0:0:0:0:0:0:0:1 - - [25/Mar/2020:21:39:54 +0530] "GET /BlockChain/index.jsp HTTP/1.1" 200 1082
0:0:0:0:0:0:0:1 - - [25/Mar/2020:21:40:34 +0530] "GET /BlockChain/Login.jsp HTTP/1.1" 200 2272
0:0:0:0:0:0:0:1 - - [25/Mar/2020:21:40:37 +0530] "GET /BlockChain/Login.jsp HTTP/1.1" 200 2272
0:0:0:0:0:0:0:1 - - [25/Mar/2020:21:40:38 +0530] "GET /BlockChain/Register.jsp HTTP/1.1" 200 3443
0:0:0:0:0:0:0:1 - - [25/Mar/2020:21:40:45 +0530] "GET /BlockChain/Login.jsp HTTP/1.1" 200 2272
0:0:0:0:0:0:0:1 - - [25/Mar/2020:21:42:10 +0530] "GET /BlockChain/Register.jsp HTTP/1.1" 200 3443
0:0:0:0:0:0:0:1 - - [25/Mar/2020:21:42:19 +0530] "GET /BlockChain/Login.jsp HTTP/1.1" 200 2272
0:0:0:0:0:0:0:1 - - [25/Mar/2020:21:42:21 +0530] "GET /BlockChain/Login.jsp HTTP/1.1" 200 2272
0:0:0:0:0:0:0:1 - - [25/Mar/2020:21:42:22 +0530] "GET /BlockChain/index.jsp HTTP/1.1" 200 1082
0:0:0:0:0:0:0:1 - - [25/Mar/2020:21:42:38 +0530] "GET /BlockChain/Login.jsp HTTP/1.1" 200 2272
0:0:0:0:0:0:0:1 - - [25/Mar/2020:21:42:40 +0530] "GET /BlockChain/Login.jsp HTTP/1.1" 200 2272
0:0:0:0:0:0:0:1 - - [25/Mar/2020:21:42:41 +0530] "GET /BlockChain/Register.jsp HTTP/1.1" 200 3443
0:0:0:0:0:0:0:1 - - [25/Mar/2020:21:44:48 +0530] "GET /BlockChain/Login.jsp HTTP/1.1" 200 2272
